Data visualisation with tidyverse | WHG training resources
…
levels(d$continent)

Right now they are in alphabetical order. Let's use dplyr to add a new column with the same
continent in, but now ordered by per capita gdp:

d$orderedContinent = reorder( d$continent, d$gdpPercap, FUN = median )

You should see something like:

# A tibble: 1,704 × 7
   country     continent  year lifeExp      pop gdpPercap orderedContinent
   <fct>       <fct>     <int>   <dbl>    <int>     <dbl> <fct>           
 1 Afghanistan Asia       1952    28.8  8425333      779. Asia            
 2 Afghanistan Asia       1957    30.3  9240934      821. Asia            
 3 Afghanistan Asia       1962    32.0 10267083      853. Asia            
 4 Afghanistan Asia       1967    34.0 11537966      836. Asia            
 5 Afghanistan Asia       1972    36.1 13079460      740. Asia            
 6 Afghanistan Asia       1977    38.4 14880372      786. Asia            
 7 Afghanistan Asia       1982    39.9 12881816      978. Asia            
 8 Afghanistan Asia       1987    40.8 13867957      852. Asia            
 9 Afghanistan Asia       1992    41.7 16317921      649. Asia            
10 Afghanistan Asia       1997    41.8 22227415      635. Asia            
# … with 1,694 more rows
# ℹ Use `print(n = ...)` to see more rows
…
